<svg version="1.2" xmlns="http://www.w3.org/2000/svg" viewBox="0 0 1300 296" width="1300" height="296">
	<title>kriterionwebsiteheader (1)-ai</title>
	<style>
		.s0 { fill: #fffdf4 } 
	</style>
	<g id="Layer 1">
		<path id="FILMTHEATER/CAFE
" class="s0" aria-label="FILMTHEATER/CAFE"  d="m8.6 87h17.1v-32h43v-10.4h-43v-21.7h45.7v-10.5h-62.8zm73.4-74.6v74.6h17.1v-74.6zm34.3 74.6h61.8v-10.6h-44.7v-64h-17.1zm125.7-16.3l-24.9-58.3h-29.4v74.6h17.1v-64.1l28.9 64.1h16.7l28.9-64.1v64.1h17v-74.6h-29.4zm63.9-47.8h32.8v64.1h17.1v-64.1h32.9v-10.4h-82.8zm154.6 64.1h17.1v-74.6h-17.1v32.1h-45.2v-32.1h-17v74.6h17v-32h45.2zm34.3 0h65.8v-10.5h-48.7v-21.5h43v-10.4h-43v-21.7h45.8v-10.5h-62.9zm152.3 0h18.4l-35.2-74.6h-29.7l-35.2 74.6h18.3l10.3-22.5h42.8zm-34.1-64.2h4.9l14.1 31h-33.2zm40.1 0h32.8v64.2h17.1v-64.2h32.8v-10.4h-82.7zm92.3 64.1h65.8v-10.6h-48.7v-21.4h43v-10.4h-43v-21.7h45.8v-10.5h-62.9zm78.3-74.6v74.6h17v-32h10.6c15.2 0 20.2 2.3 22 9.1 4.2 15.6 5.3 20.3 7.1 22.9h18.6c-1.7-2-2.3-4-11.4-27.4-1.7-4.5-5.5-8-13-9 10.1-1.1 21.2-4.9 21.2-16.9 0-14.2-11.5-21.3-37-21.3zm17.1 32.2v-21.7h19c10.9 0 18.3 3.2 18.3 10.8 0 7.7-7.4 10.9-18.3 10.9zm84.5-27.6l-26.1 79.1 4.7 1.5 26.3-79zm97.2 26.6c0 0 0.3-32.6-44.4-32.6-28 0-45.9 16.1-45.9 38.6 0 22.4 18.3 38.6 46 38.6 42 0 46.4-29.2 46.4-29.2l-17.5-4.5c0 0 0.3 21.9-28.9 21.9-16.9 0-28.3-10.3-28.3-26.8 0-15.6 9.6-26.8 28.3-26.8 29.6 0 26.7 25.6 26.7 25.6zm89.6 43.3h18.4l-35.2-74.5h-29.7l-35.2 74.5h18.3l10.3-22.5h42.8zm-34-64.1h4.9l14.1 31h-33.3zm62.2 64.1h17v-32h43.1v-10.4h-43.1v-21.7h45.7v-10.5h-62.7zm73.3 0h65.8v-10.6h-48.7v-21.4h43v-10.4h-43v-21.7h45.8v-10.5h-62.9z"/>
		<path id="KRITERION" class="s0" aria-label="KRITERION"  d="m167.7 108.4l-80.3 69.4 78.1 104.2h-27.3l-65.7-91.8-39.7 33v58.8h-24.8v-173.6h24.8v87.5l107.4-87.5zm170.6 173.6h-28.5l-52.1-47.1h-38.4v47.1h-24.8v-173.6h74.4q12.9 0 24.3 5 11.6 4.9 20.3 13.6 8.7 8.7 13.6 20.3 5 11.4 5 24.3 0 11.7-3.7 21.9-3.5 10.1-10.2 18.1-6.4 7.9-15.6 13.4-8.9 5.2-19.8 6.9 15.6 14.1 27.7 25.1 5.2 4.9 10.2 9.4 5 4.4 8.9 7.9 4.5 4.2 8.7 7.7zm-119-71.9h49.6q7.9 0 14.8-3 7.2-3 12.4-8.2 5.3-5.2 8.2-12.1 3.3-7.2 3.3-15.2 0-7.9-3.3-14.8-2.9-7.2-8.2-12.4-5.2-5.2-12.4-8.2-6.9-3-14.8-3h-49.6zm137.6 71.9v-173.6h24.8v173.6h-24.8zm186-173.6v24.8h-61.7v148.8h-24.8v-148.8h-62.3v-24.8zm24.8 0h0.3 123.7v24.8h-98.9v76.9h98.9v24.8h-99.2v22.3h99.2v24.8h-124zm292.4 173.6h-28.5l-52.1-47.1h-38.4v47.1h-24.8v-173.6h74.4q12.9 0 24.3 5 11.6 4.9 20.3 13.6 8.7 8.7 13.6 20.4 5 11.4 5 24.3 0 11.6-3.7 21.8-3.5 10.2-10.2 18.1-6.4 7.9-15.6 13.4-8.9 5.2-19.9 6.9 15.7 14.2 27.8 25.1 5.2 4.9 10.2 9.4 5 4.5 8.9 7.9 4.5 4.2 8.7 7.7zm-119-71.9h49.6q7.9 0 14.8-3 7.2-3 12.4-8.2 5.2-5.2 8.2-12.1 3.2-7.2 3.2-15.1 0-8-3.2-14.9-3-7.2-8.2-12.4-5.2-5.2-12.4-8.2-6.9-3-14.8-3h-49.6zm137.6 71.9v-173.6h24.8v173.6h-24.8zm49.6-86.8q0-18.1 7.2-33.9 7.2-15.9 19.3-27.6 12.2-11.9 27.8-18.6 15.6-6.7 32.5-6.7 18.1 0 34 6.7 15.8 6.7 27.5 18.6 11.9 11.7 18.6 27.6 6.7 15.8 6.7 33.9 0 18.1-6.7 34-6.7 15.9-18.6 27.5-11.7 11.7-27.5 18.6-15.9 6.7-34 6.7-16.9 0-32.5-6.7-15.6-6.9-27.8-18.6-12.1-11.6-19.3-27.5-7.2-15.9-7.2-34zm24.8 0q0 13.4 5 24.8 5.2 11.4 13.6 19.6 8.7 8.2 19.8 12.9 11.2 4.7 23.6 4.7 13.4 0 24.8-4.7 11.4-4.7 19.6-12.9 8.2-8.2 12.9-19.6 4.7-11.4 4.7-24.8 0-12.1-4.7-23.3-4.7-11.4-12.9-19.8-8.2-8.7-19.6-13.7-11.4-5.2-24.8-5.2-12.4 0-23.6 5.2-11.1 5-19.8 13.7-8.4 8.4-13.6 19.8-5 11.2-5 23.3zm297.6-86.8h24.8v173.6h-24.8l-99.2-138.8v138.8h-24.8v-173.6h24.8l99.2 138.9z"/>
	</g>
</svg>